"codigo_imovel","tipo_eleito","cargo","situacao_cargo","matricula","nome","cpf","telefone","celular","celular2","email"
"88","ELEITO","GESTOR GERAL","","920,132.00","DEURIVAN R SAMPAIO","157.606.503-00","","(98)99126-6721","","DEURIVANSAMPAIO@OI.COM.BR"
"88","ELEITO","GESTOR AUXILIAR","","1,147,677.00","SILVIO CARDOSO DINIZ","215.894.023-91","","(98)98816-5187","","SILVIO_15DINIZ@HOTMAIL.COM"
"88","NAO ELEITO 2016","GESTOR AUXILIAR","","","JOAO SOARES DA FONSECA","","","(98)99169-5531","",""
"367","NAO ELEITO 2016","GESTOR GERAL","","1,727,288.00","BRUNA WANESSA D. COELHO RODRIGUES","644.129.033-20","","(99)98242-1514","(99)98242-1514","BRUNA_WANESSA@HOTMAIL.COM"
"367","NAO ELEITO 2016","GESTOR AUXILIAR","","640,733.00","MARIA DULCINEIA DUARTE ARAGAO","471.741.533-72","","(99)98220-2221","(99)98220-2221","DUARTEDULCI23@HOTMAIL.COM"

