"codigo","codigo_mae","regional","cidade","inep","anexo","descricao","nome","modalidade","situacao","ocupacao","educacao_infantil_presencial","anos_finais_presencial","ensino_medio_presencial","educacao_profissional_presencial","eja_presencial","eja_semipresencial","magisterio_ead","eja_ead","educacao_presencial_ead","total_escolarizacao","cep","logradouro","numero","complemento","bairro","data_cadastro","ultima_atualizacao","latitude","longitude","anos_inicais_presencial","educacao_profissional_ead"
"88.00","88.00","SAO LUIS","SAO LUIS","21,009,848.00","MAE","CENTRO DE ENSINO","LICEU MARANHENSE","REGULAR","EM ATIVIDADE","PROPRIO","0.00","0.00","2,175.00","0.00","0.00","0.00","0.00","0.00","","2,175.00","65.020-180","PARQUE URBANO SANTOS","SN","","CENTRO","9/22/2016 0:00","9/30/2017 0:00","-2,5294717906742","-44,294640859715","0.00","0.00"
"367.00","367.00","BACABAL","BACABAL","21,100,560.00","MAE","COLEGIO MILITAR","TIRADENTES","REGULAR","EM ATIVIDADE","PROPRIO","0.00","359.00","354.00","0.00","10.00","0.00","0.00","0.00","","723.00","65.700-000","RUA FREDERICO LEDA","","","CENTRO","9/22/2016 0:00","8/3/2017 0:00","-4,08146459013248","-44,7928142733872","0.00","0.00"
